[
    {
        "id": "5afbf20d5393863d3a5b58c6",
        "channelId": "lazada-th",
        "channelSellerId": "TH102Z7",
        "channelSellerAccount": "satisa_lazadath_kao@acommerce.asia",
        "name": "Kao",
        "country": "TH",
        "isActive": true,
        "channelDetail": {
            "lazadaSellerId": "2512"
        },
        "partnerIds": [
            "106"
        ]
    },
    {
        "id": "5afbf21e5393863d3a5b70e5",
        "channelId": "lazada-th",
        "channelSellerId": "TH1029V",
        "channelSellerAccount": "satisa_lazadath_goon@acommerce.asia",
        "name": "Sanko",
        "country": "TH",
        "isActive": true,
        "channelDetail": {
            "lazadaSellerId": "1682"
        },
        "partnerIds": [
            "67"
        ]
    },
    {
        "id": "5afbf2325393863d3a5b89c5",
        "channelId": "lazada-th",
        "channelSellerId": "TH101XH",
        "channelSellerAccount": "satisa_lazadath_maybelline@acommerce.asia",
        "name": "Maybelline",
        "country": "TH",
        "isActive": true,
        "channelDetail": {
            "lazadaSellerId": "1260"
        },
        "partnerIds": [
            "6"
        ]
    },
    {
        "id": "5afbf5c35393863d3a61e935",
        "channelId": "lazada-th",
        "channelSellerId": "TH103T4",
        "channelSellerAccount": "satisa_lazadath_nivea@acommerce.asia",
        "name": "Nivea Principle",
        "country": "TH",
        "isActive": true,
        "channelDetail": {
            "lazadaSellerId": "3507"
        },
        "partnerIds": [
            "1399"
        ]
    },
    {
        "id": "5afbf5d75393863d3a62159f",
        "channelId": "lazada-th",
        "channelSellerId": "TH103X1",
        "channelSellerAccount": "satisa_lazadath_phicomm@acommerce.asia",
        "name": "Phicomm Technology (Asia Pacific)",
        "country": "TH",
        "isActive": true,
        "channelDetail": {
            "lazadaSellerId": "3641"
        },
        "partnerIds": [
            "174"
        ]
    },
    {
        "id": "5afbf5ec5393863d3a6241a4",
        "channelId": "lazada-th",
        "channelSellerId": "TH1041M",
        "channelSellerAccount": "satisa_lazadath_laroche@acommerce.asia",
        "name": "LA ROCHE-POSAY",
        "country": "TH",
        "isActive": true,
        "channelDetail": {
            "lazadaSellerId": "3803"
        },
        "partnerIds": [
            "186"
        ]
    },
    {
        "id": "5afbf5ff5393863d3a626726",
        "channelId": "lazada-th",
        "channelSellerId": "TH1041L",
        "channelSellerAccount": "satisa_lazadath_vichy@acommerce.asia",
        "name": "Vichy",
        "country": "TH",
        "isActive": true,
        "channelDetail": {
            "lazadaSellerId": "3802"
        },
        "partnerIds": [
            "185"
        ]
    },
    {
        "id": "5afbf6135393863d3a628eb2",
        "channelId": "lazada-th",
        "channelSellerId": "TH104WJ",
        "channelSellerAccount": "satisa_lazadath_garnier@acommerce.asia",
        "name": "Garnier",
        "country": "TH",
        "isActive": true,
        "channelDetail": {
            "lazadaSellerId": "4799"
        },
        "partnerIds": [
            "229"
        ]
    },
    {
        "id": "5afbf6275393863d3a62b255",
        "channelId": "lazada-th",
        "channelSellerId": "TH1053G",
        "channelSellerAccount": "satisa_lazadath_lorealparis@acommerce.asia",
        "name": "Loreal Paris",
        "country": "TH",
        "isActive": true,
        "channelDetail": {
            "lazadaSellerId": "5029"
        },
        "partnerIds": [
            "231"
        ]
    },
    {
        "id": "5afbf63f5393863d3a62dc45",
        "channelId": "lazada-th",
        "channelSellerId": "TH1057H",
        "channelSellerAccount": "satisa_lazadath_flipflopshop@acommerce.asia",
        "name": "Sureerat Rattanarak",
        "country": "TH",
        "isActive": true,
        "channelDetail": {
            "lazadaSellerId": "5164"
        },
        "partnerIds": [
            "332"
        ]
    },
    {
        "id": "5afbf6525393863d3a62fde7",
        "channelId": "lazada-th",
        "channelSellerId": "TH10EZ6",
        "channelSellerAccount": "api_lazadath_nyx@acommerce.asia",
        "name": "nyx-consignment",
        "country": "TH",
        "isActive": true,
        "channelDetail": {
            "lazadaSellerId": "16827"
        },
        "partnerIds": [
            "945"
        ]
    },
    {
        "id": "5afbf6645393863d3a631b0b",
        "channelId": "lazada-th",
        "channelSellerId": "TH10F1O",
        "channelSellerAccount": "api_lazadath_hp2@acommerce.asia",
        "name": "Hewlett-Packard Thailand",
        "country": "TH",
        "isActive": true,
        "channelDetail": {
            "lazadaSellerId": "16914"
        },
        "partnerIds": [
            "59"
        ]
    },
    {
        "id": "5afbf6785393863d3a633fab",
        "channelId": "lazada-th",
        "channelSellerId": "TH10IKK",
        "channelSellerAccount": "nita_lazadath_DG@acommerce.asia",
        "name": "DG Official Online Store",
        "country": "TH",
        "isActive": true,
        "channelDetail": {
            "lazadaSellerId": "21118"
        },
        "partnerIds": [
            "386"
        ]
    },
    {
        "id": "5afbf68b5393863d3a6363e9",
        "channelId": "lazada-th",
        "channelSellerId": "TH10JA7",
        "channelSellerAccount": "nita_lazadath_RB@acommerce.asia",
        "name": "Scholl Thailand",
        "country": "TH",
        "isActive": true,
        "channelDetail": {
            "lazadaSellerId": "21978"
        },
        "partnerIds": [
            "391"
        ]
    },
    {
        "id": "5afbf69e5393863d3a6382d6",
        "channelId": "lazada-th",
        "channelSellerId": "TH10IKP",
        "channelSellerAccount": "nita_lazadath_Abbott@acommerce.asia",
        "name": "PediaSure Official Online Store",
        "country": "TH",
        "isActive": true,
        "channelDetail": {
            "lazadaSellerId": "21123"
        },
        "partnerIds": [
            "389"
        ]
    },
    {
        "id": "5afbf6b15393863d3a63a544",
        "channelId": "lazada-th",
        "channelSellerId": "TH10JAD",
        "channelSellerAccount": "nita_lazadath_Ensure@acommerce.asia",
        "name": "Ensure Official Online Store",
        "country": "TH",
        "isActive": true,
        "channelDetail": {
            "lazadaSellerId": "21984"
        },
        "partnerIds": [
            "390"
        ]
    },
    {
        "id": "5afbf6c35393863d3a63beda",
        "channelId": "lazada-th",
        "channelSellerId": "TH10L2D",
        "channelSellerAccount": "nita_lazadath_Nepro@acommerce.asia",
        "name": "Abbott Official Online Store",
        "country": "TH",
        "isActive": true,
        "channelDetail": {
            "lazadaSellerId": "24057"
        },
        "partnerIds": [
            "404"
        ]
    },
    {
        "id": "5afbf6d45393863d3a63d99f",
        "channelId": "lazada-th",
        "channelSellerId": "TH10MWJ",
        "channelSellerAccount": "api_lazadath_Dfair@acommerce.asia",
        "name": "D-Fair Poolshop by DKSH",
        "country": "TH",
        "isActive": true,
        "channelDetail": {
            "lazadaSellerId": "26163"
        },
        "partnerIds": [
            "421"
        ]
    },
    {
        "id": "5afbf6e75393863d3a640b6c",
        "channelId": "lazada-th",
        "channelSellerId": "TH10MWI",
        "channelSellerAccount": "nita_lazadath_UnileverTH@acommerce.asia",
        "name": "Unilever Thailand",
        "country": "TH",
        "isActive": true,
        "channelDetail": {
            "lazadaSellerId": "26162"
        },
        "partnerIds": [
            "489"
        ]
    },
    {
        "id": "5afbf6f95393863d3a642afe",
        "channelId": "lazada-th",
        "channelSellerId": "TH10HDV",
        "channelSellerAccount": "api_lazadath_ithotdeal@acommerce.asia",
        "name": "IT Hot Deal",
        "country": "TH",
        "isActive": true,
        "channelDetail": {
            "lazadaSellerId": "19704"
        },
        "partnerIds": [
            "497"
        ]
    },
    {
        "id": "5afbf70a5393863d3a644c4b",
        "channelId": "lazada-th",
        "channelSellerId": "TH10P09",
        "channelSellerAccount": "api_lazadath_skindoctors@acommerce.asia",
        "name": "PharmaCare Thailand",
        "country": "TH",
        "isActive": true,
        "channelDetail": {
            "lazadaSellerId": "28698"
        },
        "partnerIds": [
            "512"
        ]
    },
    {
        "id": "5afbf72b5393863d3a648c31",
        "channelId": "lazada-th",
        "channelSellerId": "TH10RS3",
        "channelSellerAccount": "api_lazadath_tesco@acommerce.asia",
        "name": "Tescolotus Thailand",
        "country": "TH",
        "isActive": false,
        "channelDetail": {
            "lazadaSellerId": "30856"
        },
        "partnerIds": [
            "567"
        ]
    },
    {
        "id": "5afbf73f5393863d3a64afaf",
        "channelId": "lazada-th",
        "channelSellerId": "TH10RWZ",
        "channelSellerAccount": "api_lazadath_rbhomecare@acommerce.asia",
        "name": "RB Home Care",
        "country": "TH",
        "isActive": true,
        "channelDetail": {
            "lazadaSellerId": "31024"
        },
        "partnerIds": [
            "626"
        ]
    },
    {
        "id": "5afbf7535393863d3a64d54b",
        "channelId": "lazada-th",
        "channelSellerId": "TH10SUP",
        "channelSellerAccount": "api_rayban_th@acommerce.asia",
        "name": "Ray-Ban",
        "country": "TH",
        "isActive": true,
        "channelDetail": {
            "lazadaSellerId": "32161"
        },
        "partnerIds": [
            "690"
        ]
    },
    {
        "id": "5afbf7675393863d3a64f751",
        "channelId": "lazada-th",
        "channelSellerId": "TH10SUR",
        "channelSellerAccount": "api_vogue_th@acommerce.asia",
        "name": "Vogue Thailand",
        "country": "TH",
        "isActive": true,
        "channelDetail": {
            "lazadaSellerId": "32162"
        },
        "partnerIds": [
            "691"
        ]
    },
    {
        "id": "5afbf77c5393863d3a6514a9",
        "channelId": "lazada-th",
        "channelSellerId": "TH10SUZ",
        "channelSellerAccount": "api_oakley_th@acommerce.asia",
        "name": "Oakley Thailand",
        "country": "TH",
        "isActive": true,
        "channelDetail": {
            "lazadaSellerId": "32170"
        },
        "partnerIds": [
            "692"
        ]
    },
    {
        "id": "5afbf7905393863d3a652e8e",
        "channelId": "lazada-th",
        "channelSellerId": "TH10SPR",
        "channelSellerAccount": "api_3m_th@acommerce.asia",
        "name": "3M Thailand",
        "country": "TH",
        "isActive": true,
        "channelDetail": {
            "lazadaSellerId": "32025"
        },
        "partnerIds": [
            "538"
        ]
    },
    {
        "id": "5afbf7a35393863d3a65499c",
        "channelId": "lazada-th",
        "channelSellerId": "TH10WPS",
        "channelSellerAccount": "nita_lazadath_Dfairhc@acommerce.asia",
        "name": "D-Fair Healthcare by DKSH",
        "country": "TH",
        "isActive": true,
        "channelDetail": {
            "lazadaSellerId": "36825"
        },
        "partnerIds": [
            "711"
        ]
    },
    {
        "id": "5afbf7b55393863d3a655eaf",
        "channelId": "lazada-th",
        "channelSellerId": "TH110A1",
        "channelSellerAccount": "api_optimum_th@acommerce.asia",
        "name": "Optimum Nutrition",
        "country": "TH",
        "isActive": true,
        "channelDetail": {
            "lazadaSellerId": "100001741"
        },
        "partnerIds": [
            "734"
        ]
    },
    {
        "id": "5afbf7c65393863d3a657be1",
        "channelId": "lazada-th",
        "channelSellerId": "TH111EF",
        "channelSellerAccount": "api_philips_th@acommerce.asia",
        "name": "Philips Thailand",
        "country": "TH",
        "isActive": true,
        "channelDetail": {
            "lazadaSellerId": "100003376"
        },
        "partnerIds": [
            "724"
        ]
    },
    {
        "id": "5afbf7d75393863d3a659ce1",
        "channelId": "lazada-th",
        "channelSellerId": "TH10ZNP",
        "channelSellerAccount": "api_orami_th@acommerce.asia",
        "name": "Whatsnew Company (Orami)",
        "country": "TH",
        "isActive": true,
        "channelDetail": {
            "lazadaSellerId": "100000914"
        },
        "partnerIds": [
            "66"
        ]
    },
    {
        "id": "5afbf7e95393863d3a65c241",
        "channelId": "lazada-th",
        "channelSellerId": "TH111ID",
        "channelSellerAccount": "api_snailwhite_th@acommerce.asia",
        "name": "Namu Life Snailwhite",
        "country": "TH",
        "isActive": true,
        "channelDetail": {
            "lazadaSellerId": "100003530"
        },
        "partnerIds": [
            "736"
        ]
    },
    {
        "id": "5afbf7fb5393863d3a65df81",
        "channelId": "lazada-th",
        "channelSellerId": "TH111IH",
        "channelSellerAccount": "api_schwarzkopf_th@acommerce.asia",
        "name": "Schwarzkopf",
        "country": "TH",
        "isActive": true,
        "channelDetail": {
            "lazadaSellerId": "100003534"
        },
        "partnerIds": [
            "737"
        ]
    },
    {
        "id": "5afbf80c5393863d3a65fac3",
        "channelId": "lazada-th",
        "channelSellerId": "TH1140S",
        "channelSellerAccount": "api_lego_th@acommerce.asia",
        "name": "Lego Thailand",
        "country": "TH",
        "isActive": true,
        "channelDetail": {
            "lazadaSellerId": "100006843"
        },
        "partnerIds": [
            "747"
        ]
    },
    {
        "id": "5afbf81d5393863d3a660fa7",
        "channelId": "lazada-th",
        "channelSellerId": "TH116PP",
        "channelSellerAccount": "api_cressi_th@acommerce.asia",
        "name": "Cressi Lazada Thailand",
        "country": "TH",
        "isActive": true,
        "channelDetail": {
            "lazadaSellerId": "100010260"
        },
        "partnerIds": [
            "753"
        ]
    },
    {
        "id": "5afbf82f5393863d3a662ee0",
        "channelId": "lazada-th",
        "channelSellerId": "TH116PW",
        "channelSellerAccount": "api_clarisonic_th@acommerce.asia",
        "name": "Clarisonic",
        "country": "TH",
        "isActive": true,
        "channelDetail": {
            "lazadaSellerId": "100010269"
        },
        "partnerIds": [
            "763"
        ]
    },
    {
        "id": "5afbf8405393863d3a664b3b",
        "channelId": "lazada-th",
        "channelSellerId": "TH114D0",
        "channelSellerAccount": "api_levis_th@acommerce.asia",
        "name": "Levi's DKSH",
        "country": "TH",
        "isActive": true,
        "channelDetail": {
            "lazadaSellerId": "100007284"
        },
        "partnerIds": [
            "475"
        ]
    },
    {
        "id": "5afbf8535393863d3a666574",
        "channelId": "lazada-th",
        "channelSellerId": "TH1180F",
        "channelSellerAccount": "api_eternalknot_th@acommerce.asia",
        "name": "Eternal Knot Group",
        "country": "TH",
        "isActive": true,
        "channelDetail": {
            "lazadaSellerId": "100011891"
        },
        "partnerIds": [
            "771"
        ]
    },
    {
        "id": "5afbf8645393863d3a667ec6",
        "channelId": "lazada-th",
        "channelSellerId": "TH11C6S",
        "channelSellerAccount": "api_ax_th@acommerce.asia",
        "name": "Armani Exchange",
        "country": "TH",
        "isActive": true,
        "channelDetail": {
            "lazadaSellerId": "100017213"
        },
        "partnerIds": [
            "784"
        ]
    },
    {
        "id": "5afbf8765393863d3a6698fb",
        "channelId": "lazada-th",
        "channelSellerId": "TH11DZM",
        "channelSellerAccount": "api_hadalabo_th@acommerce.asia",
        "name": "Hada Labo official Store",
        "country": "TH",
        "isActive": true,
        "channelDetail": {
            "lazadaSellerId": "100019504"
        },
        "partnerIds": [
            "800"
        ]
    },
    {
        "id": "5afbf8895393863d3a66b3fc",
        "channelId": "lazada-th",
        "channelSellerId": "TH11DTB",
        "channelSellerAccount": "api_yvesrocher_th@acommerce.asia",
        "name": "Yves Rocher Thailand-NEW",
        "country": "TH",
        "isActive": true,
        "channelDetail": {
            "lazadaSellerId": "100019272"
        },
        "partnerIds": [
            "829"
        ]
    },
    {
        "id": "5afbf89b5393863d3a66c923",
        "channelId": "lazada-th",
        "channelSellerId": "TH11EAK",
        "channelSellerAccount": "api_coach_th@acommerce.asia",
        "name": "Coach",
        "country": "TH",
        "isActive": true,
        "channelDetail": {
            "lazadaSellerId": "100019890"
        },
        "partnerIds": [
            "796"
        ]
    },
    {
        "id": "5afbf8ad5393863d3a66ddda",
        "channelId": "lazada-th",
        "channelSellerId": "TH10G70",
        "channelSellerAccount": "api_stiefel_th@acommerce.asia",
        "name": "StiefelGSK ConsumerHealthcare",
        "country": "TH",
        "isActive": true,
        "channelDetail": {
            "lazadaSellerId": "18262"
        },
        "partnerIds": [
            "795"
        ]
    },
    {
        "id": "5afbf8be5393863d3a66f078",
        "channelId": "lazada-th",
        "channelSellerId": "TH11C6L",
        "channelSellerAccount": "api_iguana_th@acommerce.asia",
        "name": "Iguana Online Co., Ltd.",
        "country": "TH",
        "isActive": true,
        "channelDetail": {
            "lazadaSellerId": "100017207"
        },
        "partnerIds": [
            "799"
        ]
    },
    {
        "id": "5afbf8d05393863d3a6708da",
        "channelId": "lazada-th",
        "channelSellerId": "TH11F0M",
        "channelSellerAccount": "api_policeeyewear_th@acommerce.asia",
        "name": "POLICE Eyewear Official Store",
        "country": "TH",
        "isActive": true,
        "channelDetail": {
            "lazadaSellerId": "100020803"
        },
        "partnerIds": [
            "818"
        ]
    },
    {
        "id": "5afbf8e15393863d3a671b2c",
        "channelId": "lazada-th",
        "channelSellerId": "TH11IL3",
        "channelSellerAccount": "api_luxottica_th@acommerce.asia",
        "name": "Branded Eyewear Clearance",
        "country": "TH",
        "isActive": true,
        "channelDetail": {
            "lazadaSellerId": "100025464"
        },
        "partnerIds": [
            "834"
        ]
    },
    {
        "id": "5afbf90e5393863d3a675bf6",
        "channelId": "lazada-th",
        "channelSellerId": "TH11KUE",
        "channelSellerAccount": "thipsupa_lazadath_colgate-palmolive@acommerce.asia",
        "name": "Colgate-Palmolive",
        "country": "TH",
        "isActive": true,
        "channelDetail": {
            "lazadaSellerId": "100028316"
        },
        "partnerIds": [
            "830"
        ]
    },
    {
        "id": "5afbf9355393863d3a678c0a",
        "channelId": "lazada-th",
        "channelSellerId": "TH124S9",
        "channelSellerAccount": "api_nestle_th@acommerce.asia",
        "name": "Nestle Grocery",
        "country": "TH",
        "isActive": true,
        "channelDetail": {
            "lazadaSellerId": "100056648"
        },
        "partnerIds": [
            "833"
        ]
    },
    {
        "id": "5afbf9775393863d3a67ebc3",
        "channelId": "lazada-th",
        "channelSellerId": "TH11O24",
        "channelSellerAccount": "api_oceanskin_th@acommerce.asia",
        "name": "Ocean Skin Official Store",
        "country": "TH",
        "isActive": true,
        "channelDetail": {
            "lazadaSellerId": "100032474"
        },
        "partnerIds": [
            "835"
        ]
    },
    {
        "id": "5afbf98c5393863d3a6809cf",
        "channelId": "lazada-th",
        "channelSellerId": "TH10641",
        "channelSellerAccount": "satisa_lazadath_ais@acommerce.asia",
        "name": "Wireless Device Supply",
        "country": "TH",
        "isActive": true,
        "channelDetail": {
            "lazadaSellerId": "6234"
        },
        "partnerIds": [
            "55"
        ]
    },
    {
        "id": "5afbf99e5393863d3a6820ec",
        "channelId": "lazada-th",
        "channelSellerId": "TH129R5",
        "channelSellerAccount": "api_pg_th@acommerce.asia",
        "name": "Pampers Official",
        "country": "TH",
        "isActive": true,
        "channelDetail": {
            "lazadaSellerId": "100063342"
        },
        "partnerIds": [
            "913"
        ]
    },
    {
        "id": "5afbf9b15393863d3a683d03",
        "channelId": "lazada-th",
        "channelSellerId": "TH12S2V",
        "channelSellerAccount": "api_avene_th@acommerce.asia",
        "name": "Avene DKSH",
        "country": "TH",
        "isActive": true,
        "channelDetail": {
            "lazadaSellerId": "100086206"
        },
        "partnerIds": [
            "937"
        ]
    },
    {
        "id": "5afbf9c45393863d3a68552e",
        "channelId": "lazada-th",
        "channelSellerId": "TH12K8X",
        "channelSellerAccount": "api_jacqueslemans2_th@acommerce.asia",
        "name": "Jacques Lemans DKSH",
        "country": "TH",
        "isActive": true,
        "channelDetail": {
            "lazadaSellerId": "100077294"
        },
        "partnerIds": [
            "936"
        ]
    },
    {
        "id": "5afbf9da5393863d3a687625",
        "channelId": "lazada-th",
        "channelSellerId": "TH12TAE",
        "channelSellerAccount": "praewporn_lazadath_lorealprofessional@acommerce.asia",
        "name": "Loreal Professional Official",
        "country": "TH",
        "isActive": true,
        "channelDetail": {
            "lazadaSellerId": "100087748"
        },
        "partnerIds": [
            "942"
        ]
    },
    {
        "id": "5afbf9f05393863d3a68977b",
        "channelId": "lazada-th",
        "channelSellerId": "TH1XP280",
        "channelSellerAccount": "api_naraya_th@acommerce.asia",
        "name": "Naraya Thailand",
        "country": "TH",
        "isActive": true,
        "channelDetail": {
            "lazadaSellerId": "100115855"
        },
        "partnerIds": [
            "989"
        ]
    },
    {
        "id": "5afbfa2c5393863d3a68ec30",
        "channelId": "lazada-th",
        "channelSellerId": "TH1XPOTP",
        "channelSellerAccount": "api_omron_th@acommerce.asia",
        "name": "OMRON THAILAND",
        "country": "TH",
        "isActive": true,
        "channelDetail": {
            "lazadaSellerId": "100143530"
        },
        "partnerIds": [
            "1024"
        ]
    },
    {
        "id": "5afbfa3f5393863d3a6905cd",
        "channelId": "lazada-th",
        "channelSellerId": "TH1XPTYG",
        "channelSellerAccount": "api_kao_th@acommerce.asia",
        "name": "Kao Thailand",
        "country": "TH",
        "isActive": true,
        "channelDetail": {
            "lazadaSellerId": "100148596"
        },
        "partnerIds": [
            "1031"
        ]
    },
    {
        "id": "5afbfa895393863d3a696bca",
        "channelId": "lazada-th",
        "channelSellerId": "TH103LN",
        "channelSellerAccount": "api_lazadath_snowbrand@acommercedev.com",
        "name": "SNOW BRAND SIAM LIMITED",
        "country": "TH",
        "isActive": true,
        "channelDetail": {
            "lazadaSellerId": "3281"
        },
        "partnerIds": [
            "143"
        ]
    },
    {
        "id": "5afc05325393863d3a78eba5",
        "channelId": "lazada-th",
        "channelSellerId": "TH11IBE",
        "channelSellerAccount": "api_philipsavent_th@acommerce.asia",
        "name": "Philips Avent",
        "country": "TH",
        "isActive": true,
        "channelDetail": {
            "lazadaSellerId": "100025115"
        },
        "partnerIds": [
            "1068"
        ]
    },
    {
        "id": "5b0525bc5393863d3acb4f8c",
        "channelId": "lazada-th",
        "channelSellerId": "TH138FK",
        "channelSellerAccount": "api_babimild_th@acommerce.asia",
        "name": "Babimild",
        "country": "TH",
        "isActive": true,
        "channelDetail": {
            "lazadaSellerId": "100107263"
        },
        "partnerIds": [
            "957"
        ]
    },
    {
        "id": "5b0525e75393863d3acb9910",
        "channelId": "lazada-th",
        "channelSellerId": "TH121RI",
        "channelSellerAccount": "api_eucerin_th@acommerce.asia",
        "name": "Eucerin Official DKSH",
        "country": "TH",
        "isActive": true,
        "channelDetail": {
            "lazadaSellerId": "100052081"
        },
        "partnerIds": [
            "905"
        ]
    },
    {
        "id": "5b0525f15393863d3acba68c",
        "channelId": "lazada-th",
        "channelSellerId": "TH12I04",
        "channelSellerAccount": "jirapond_lazadath_kate@acommerce.asia",
        "name": "KATE",
        "country": "TH",
        "isActive": true,
        "channelDetail": {
            "lazadaSellerId": "100074368"
        },
        "partnerIds": [
            "931"
        ]
    },
    {
        "id": "5b0525fe5393863d3acbc45c",
        "channelId": "lazada-th",
        "channelSellerId": "TH11X5D",
        "channelSellerAccount": "clinique_th@acommerce.asia",
        "name": "Estee Lauder (ELCA) Thailand",
        "country": "TH",
        "isActive": true,
        "channelDetail": {
            "lazadaSellerId": "100043386"
        },
        "partnerIds": [
            "1008"
        ]
    },
    {
        "id": "5b0526095393863d3acbd8c2",
        "channelId": "lazada-th",
        "channelSellerId": "TH11X4X",
        "channelSellerAccount": "maccosmetics_th@acommerce.asia",
        "name": "MAC (ELCA) Thailand",
        "country": "TH",
        "isActive": true,
        "channelDetail": {
            "lazadaSellerId": "100043370"
        },
        "partnerIds": [
            "1009"
        ]
    },
    {
        "id": "5b0526115393863d3acbe43f",
        "channelId": "lazada-th",
        "channelSellerId": "TH11X57",
        "channelSellerAccount": "origins_th@acommerce.asia",
        "name": "Origins (ELCA) Thailand",
        "country": "TH",
        "isActive": true,
        "channelDetail": {
            "lazadaSellerId": "100043380"
        },
        "partnerIds": [
            "1010"
        ]
    },
    {
        "id": "5b05261b5393863d3acbf188",
        "channelId": "lazada-th",
        "channelSellerId": "TH1XPT6D",
        "channelSellerAccount": "api_microsoft_th@acommerce.asia",
        "name": "Microsoft Thailand-New",
        "country": "TH",
        "isActive": true,
        "channelDetail": {
            "lazadaSellerId": "100147648"
        },
        "partnerIds": [
            "1057"
        ]
    },
    {
        "id": "5b0526225393863d3acbffeb",
        "channelId": "lazada-th",
        "channelSellerId": "TH1XPMH2",
        "channelSellerAccount": "api_urbandecay_th@acommerce.asia",
        "name": "Urban Decay",
        "country": "TH",
        "isActive": true,
        "channelDetail": {
            "lazadaSellerId": "100140672"
        },
        "partnerIds": [
            "946"
        ]
    },
    {
        "id": "5b05262a5393863d3acc10d2",
        "channelId": "lazada-th",
        "channelSellerId": "TH1XPW3K",
        "channelSellerAccount": "api_cerave_th@acommerce.asia",
        "name": "CeraVe Thailand",
        "country": "TH",
        "isActive": true,
        "channelDetail": {
            "lazadaSellerId": "100151225"
        },
        "partnerIds": [
            "1035"
        ]
    },
    {
        "id": "5b0529a25393863d3ad2b834",
        "channelId": "lazada-th",
        "channelSellerId": "TH1XPBV2",
        "channelSellerAccount": "api_huggies_th@acommerce.asia",
        "name": "Huggies",
        "country": "TH",
        "isActive": true,
        "channelDetail": {
            "lazadaSellerId": "100127652"
        },
        "partnerIds": [
            "984"
        ]
    },
    {
        "id": "5b0529ab5393863d3ad2c1be",
        "channelId": "lazada-th",
        "channelSellerId": "TH1XPM1Z",
        "channelSellerAccount": "api_esteelauder_th@acommerce.asia",
        "name": "Estee Lauder (ELCA) Thailand",
        "country": "TH",
        "isActive": true,
        "channelDetail": {
            "lazadaSellerId": "100140144"
        },
        "partnerIds": [
            "1011"
        ]
    },
    {
        "id": "5b0529b45393863d3ad2ce96",
        "channelId": "lazada-th",
        "channelSellerId": "TH1XPXD6",
        "channelSellerAccount": "api_kbright_th@acommerce.asia",
        "name": "K-Bright",
        "country": "TH",
        "isActive": true,
        "channelDetail": {
            "lazadaSellerId": "100152786"
        },
        "partnerIds": [
            "985"
        ]
    },
    {
        "id": "5b0e67d15393863d3a461aed",
        "channelId": "lazada-th",
        "channelSellerId": "TH1XPVTL",
        "channelSellerAccount": "api_scotch-brite_th@acommerce.asia",
        "name": "Scotch Brite Thailand",
        "country": "TH",
        "isActive": true,
        "channelDetail": {
            "lazadaSellerId": "100150876"
        },
        "partnerIds": [
            "1032"
        ]
    },
    {
        "id": "5b0e67d15393863d3a461bb0",
        "channelId": "lazada-th",
        "channelSellerId": "TH1XPY54",
        "channelSellerAccount": "api_sennheiser_th@acommerce.asia",
        "name": "Sennheiser TH",
        "country": "TH",
        "isActive": true,
        "channelDetail": {
            "lazadaSellerId": "100153729"
        },
        "partnerIds": [
            "1041"
        ]
    },
    {
        "id": "5b19048b5393863d3ad9b2bb",
        "channelId": "lazada-th",
        "channelSellerId": "TH1XR35W",
        "channelSellerAccount": "api_hasbro_th@acommerce.asia",
        "name": "Hasbro Thailand",
        "country": "TH",
        "isActive": true,
        "channelDetail": {
            "lazadaSellerId": "100159881"
        },
        "partnerIds": [
            "1049"
        ]
    },
    {
        "id": "5b19fb0d5393863d3a108059",
        "channelId": "lazada-th",
        "channelSellerId": "TH1XR3DN",
        "channelSellerAccount": "api_lancome_th@acommerce.asia",
        "name": "Lancome",
        "country": "TH",
        "isActive": true,
        "channelDetail": {
            "lazadaSellerId": "100160153"
        },
        "partnerIds": [
            "888"
        ]
    },
    {
        "id": "5b1a6a475393863d3ae95a6c",
        "channelId": "lazada-th",
        "channelSellerId": "TH1XR1CK",
        "channelSellerAccount": "api_gatsby_th@acommerce.asia",
        "name": "Gatsby DKSH",
        "country": "TH",
        "isActive": true,
        "channelDetail": {
            "lazadaSellerId": "100157665"
        },
        "partnerIds": [
            "1048"
        ]
    },
    {
        "id": "5b1dfde95393863d3ae9e86c",
        "channelId": "lazada-th",
        "channelSellerId": "TH1XR1CO",
        "channelSellerAccount": "api_lucido_th@acommerce.asia",
        "name": "Lucido DKSH",
        "country": "TH",
        "isActive": true,
        "channelDetail": {
            "lazadaSellerId": "100157669"
        },
        "partnerIds": [
            "1050"
        ]
    },
    {
        "id": "5b1e1f045393863d3a20743b",
        "channelId": "lazada-th",
        "channelSellerId": "TH1XR2ER",
        "channelSellerAccount": "api_biotherm_th@acommerce.asia",
        "name": "Biotherm",
        "country": "TH",
        "isActive": true,
        "channelDetail": {
            "lazadaSellerId": "100158966"
        },
        "partnerIds": [
            "892"
        ]
    },
    {
        "id": "5b1e2b565393863d3a395d80",
        "channelId": "lazada-th",
        "channelSellerId": "TH1XPXB8",
        "channelSellerAccount": "api_gskoralhealthcare_th@acommerce.asia",
        "name": "GSK Oral DKSH",
        "country": "TH",
        "isActive": true,
        "channelDetail": {
            "lazadaSellerId": "100152718"
        },
        "partnerIds": [
            "1059"
        ]
    },
    {
        "id": "5b5986435393863d3a447481",
        "channelId": "lazada-th",
        "channelSellerId": "TH1XRMPA",
        "channelSellerAccount": "api_microsoft-pb_th@acommerce.asia",
        "name": "Microsoft-Pre Booking",
        "country": "TH",
        "isActive": true,
        "channelDetail": {
            "lazadaSellerId": "100183835"
        },
        "partnerIds": [
            "1072"
        ]
    },
    {
        "id": "5b98ce445393863d3acf55fa",
        "channelId": "lazada-th",
        "channelSellerId": "TH1XS2AC",
        "channelSellerAccount": "api_wearefeelgood_th@acommerce.asia",
        "name": "We Are Feel Good TH",
        "country": "TH",
        "isActive": true,
        "channelDetail": {
            "lazadaSellerId": "100201687"
        },
        "partnerIds": [
            "1300"
        ]
    },
    {
        "id": "5bb715485393863d3ad69947",
        "channelId": "lazada-th",
        "channelSellerId": "THJ2DRFG",
        "channelSellerAccount": "api_brother_th@acommerce.asia",
        "name": "Brother TH",
        "country": "TH",
        "isActive": true,
        "channelDetail": {
            "lazadaSellerId": "1000006016"
        },
        "partnerIds": [
            "1323"
        ]
    },
    {
        "id": "5bd011235393863d3a7debde",
        "channelId": "lazada-th",
        "channelSellerId": "TH12ABL",
        "channelSellerAccount": "lazadath_johnsonandjohnson@acommerce.asia",
        "name": "Johnson & Johnson TH",
        "country": "TH",
        "isActive": true,
        "channelDetail": {
            "lazadaSellerId": "100064065"
        },
        "partnerIds": [
            "1337",
            "1338"
        ]
    },
    {
        "id": "5bd01d1a5393863d3aa2a581",
        "channelId": "lazada-th",
        "channelSellerId": "TH1XPMIZ",
        "channelSellerAccount": "lazadath_ogx@acommerce.asia",
        "name": "OGX FBA TH",
        "country": "TH",
        "isActive": true,
        "channelDetail": {
            "lazadaSellerId": "100140739"
        },
        "partnerIds": [
            "1336"
        ]
    },
    {
        "id": "5bf4d4905393863d3a03b578",
        "channelId": "lazada-th",
        "channelSellerId": "THJ2E8X2",
        "channelSellerAccount": "api_suisai_th@acommerce.asia",
        "name": "Suisai TH",
        "country": "TH",
        "isActive": true,
        "channelDetail": {
            "lazadaSellerId": "1000027422"
        },
        "partnerIds": [
            "1327"
        ]
    },
    {
        "id": "5c40028a5393863d3a9f2286",
        "channelId": "lazada-th",
        "channelSellerId": "THJ2F2E9",
        "channelSellerAccount": "api_ajinomoto_th@acommerce.asia",
        "name": "Ajinomoto TH",
        "country": "TH",
        "isActive": true,
        "channelDetail": {
            "lazadaSellerId": "1000062324"
        },
        "partnerIds": [
            "1426"
        ]
    },
    {
        "id": "5c454d915393863d3ade5b53",
        "channelId": "lazada-th",
        "channelSellerId": "THJ2F3JB",
        "channelSellerAccount": "api_mondalez_th@accommerce.asia",
        "name": "Mondelez DKSH",
        "country": "TH",
        "isActive": true,
        "channelDetail": {
            "lazadaSellerId": "1000063726"
        },
        "partnerIds": [
            "1428"
        ]
    }
]